dodržanie karantény
Dni pandemie            136.55625<132.84399625867266;140.26850374132735>
Priemerne vylieceny     51585.7<51572.11522989388;51599.28477010611>
Priemerne mrtvy         413.8<400.0209723361917;427.57902766380835>
Vrchol infekcie         25724.3<25646.75224548752;25801.847754512477>
Den vrcholu infekcie    62.769930255384864<62.13406806560649;63.405792445163236>
Vrchol karanteny        968.0<941.6811874431993;994.3188125568007>
Den vrcholu karanteny   81.15625<79.72563558653975;82.58686441346025>
Vrchol nemocnice        3927.6<3883.4730236630635;3971.7269763369363>
Den vrcholu nemocnice   70.95513322874324<70.45625404801586;71.45401240947061>
porušenie karantény
Dni pandemie            136.15625<132.12393582573242;140.18856417426758>
Priemerne vylieceny     51579.7<51568.0431990113;51591.356800988695>
Priemerne mrtvy         419.9<408.28032423688114;431.5196757631188>
Vrchol infekcie         25789.2<25751.768171391246;25826.631828608755>
Den vrcholu infekcie    63.053456103231916<62.6291296622717;63.47778254419213>
Vrchol karanteny        0<0;0>
Den vrcholu karanteny   0<0;0>
Vrchol nemocnice        3969.4<3936.407523975317;4002.392476024683>
Den vrcholu nemocnice   70.77785791089784<70.19219084015378;71.36352498164189>